{
    "message": "success login",
    "user": {
        "id": 55,
        "name": "ss",
        "email": "1231211l@gmail.com",
        "birthday": null,
        "token": "eyJ0eXAiOiJKV1QiLCJhbGciOiJIUzI1NiJ9.eyJpc3MiOiJodHRwOi8vbG9jYWxob3N0Ojc3NzcvYXBpL2F1dGgvbG9naW4iLCJpYXQiOjE3MTg4MzE5OTAsImV4cCI6MTcxODgzNTU5MCwibmJmIjoxNzE4ODMxOTkwLCJqdGkiOiI0WnlZOUNoakpUTWRESUZ6Iiwic3ViIjoiNTUiLCJwcnYiOiIyM2JkNWM4OTQ5ZjYwMGFkYjM5ZTcwMWM0MDA4NzJkYjdhNTk3NmY3In0.eY2ih3NlWrQCZYdtuGTDY7KVwfr1lt35vJcYw_DCRfA"
    }
}
